0	161	-5.406
1	161	-5.406
2	161	-4.28
3	161	-4.28
4	161	-4.28
5	161	-3.797
6	161	-4.047
7	161	-4.28
8	161	-5.406
9	161	-4.047
10	161	-3.797
11	161	-5.406
12	161	-5.406
13	161	-5.406
14	161	-5.406
15	161	-4.266
16	161	-3.797
17	161	-4.49
18	161	-5.406
19	161	-3.797
20	161	-4.266
21	161	-4.28
22	161	-4.266
23	161	-3.797
24	161	-4.047
25	161	-3.797
26	161	-4.047
27	161	-5.523
28	161	-4.266
29	161	-5.406
30	161	-5.406
31	161	-3.797
32	161	-3.797
33	161	-4.28
34	161	-4.28
35	161	-4.266
36	161	-4.047
37	161	-5.406
38	161	-4.49
39	161	-5.406
40	161	-5.406
41	161	-4.49
42	161	-4.28
43	161	-5.406
44	161	-5.406
45	161	-4.266
46	161	-4.047
47	161	-5.406
48	161	-5.523
49	161	-4.047
50	161	-5.406
51	161	-4.047
52	161	-4.28
53	161	-5.406
54	161	-5.406
55	161	-3.797
56	161	-5.406
57	161	-4.28
58	161	-4.28
59	161	-5.9
60	161	-5.9
61	161	-5.9
62	161	-3.568
63	161	-5.9
64	161	-3.568
65	161	-5.207
66	161	-5.9
67	161	-5.9
68	161	-5.9
69	161	-3.797
70	161	-4.266
71	161	-4.266
72	161	-4.28
73	161	-3.797
74	161	-3.797
75	161	-3.797
76	161	-3.797
77	161	-4.29
78	161	-5.523
79	161	-4.49
80	161	-3.846
81	161	-3.797
82	161	-4.49
83	161	-3.797
84	161	-4.49
85	161	-4.49
86	161	-3.846
87	161	-3.846
88	161	-3.846
89	161	-3.846
90	161	-4.29
91	161	-5.023
92	161	-5.523
93	161	-4.29
94	161	-3.797
95	161	-3.846
96	161	-5.523
97	161	-3.846
98	161	-4.49
99	161	-5.523
100	161	-4.28
101	161	-3.846
102	161	-3.846
103	161	-3.846
104	161	-5.9
105	161	-5.023
106	161	-3.846
107	161	-3.846
108	161	-3.568
109	161	-3.568
110	161	-5.523
111	161	-3.568
112	161	-3.568
113	161	-4.047
114	161	-5.523
115	161	-4.29
116	161	-5.023
117	161	-5.023
118	161	-3.846
119	161	-5.523
120	161	-3.846
121	161	-5.523
122	161	-5.207
123	161	-3.846
124	161	-3.846
125	161	-5.207
126	161	-5.523
127	161	-3.846
128	161	-3.846
129	161	-3.846
130	161	-3.846
131	161	-5.207
132	161	-5.023
133	161	-4.29
134	161	-5.023
135	161	-3.568
136	161	-5.023
137	161	-5.023
138	161	-4.29
139	161	-4.29
140	161	-4.29
141	161	-3.846
142	161	-3.846
143	161	-3.846
144	161	-3.846
145	161	-3.846
146	161	-5.023
147	161	-3.846
148	161	-3.846
149	161	-3.846
150	161	-3.846
151	161	-3.846
152	161	-3.846
153	161	-3.846
154	161	-3.846
155	161	-5.023
156	161	-3.846
157	161	-3.846
158	161	-3.846
159	161	-3.846
160	161	-3.846
161	161	-4.54
